Day 5 Machine Learning | Course script for SICSS Paris
…
In the initial call, the formula needs to be provided. In our example, we want to predict the sentiment (“positive” or “negative”) using the text in the review. Then, different steps for pre-processing are added. Similar to what you have learned in the prior chapters containing measures based on the bag of words assumption, the first step is usually tokenization, achieved through step_tokenize(). In the end, the features need to be quantified, either through step_tf(), for raw term frequencies, or step_tfidf(), for TF-IDF. In between, various pre-processing steps such as word normalization (i.e., stemming or lemmatization), and removal of rare or common words Hence, a recipe for a very basic model just using raw frequencies and the 1,000 most common words would look as follows:

imdb_basic_recipe <- recipe(sentiment ~ text, data = imdb_train) %>% 
  step_tokenize(text) %>% # tokenize text
  step_tokenfilter(text, max_tokens = 1000) %>% # only retain 1000 most common words
  # additional pre-processing steps can be added, see next chapter
  step_tf(text) # final step: add term frequencies

In case you want to know what the data set for the classification task looks like, you can prep() and finally bake() the recipe. Note that we need to specify the data set we want to pre-process in the recipe’s manner. In our case, we want to perform the operations on the data specified in the basic_recipe and, hence, need to specify new_data = NULL.

imdb_basic_recipe %>% 
  prep() %>% 
  bake(new_data = NULL)

## # A tibble: 20,000 × 1,001
##    sentiment tf_text_1 tf_text_10 tf_text_2 tf_text_20 tf_text_3 tf_text_4
##    <fct>         <dbl>      <dbl>     <dbl>      <dbl>     <dbl>     <dbl>
##  1 negative          0          1         0          0         0         1
##  2 negative          1          0         1          0         0         0
##  3 negative          0          0         0          0         1         0
##  4 negative          0          0         0          0         0         0
##  5 negative          0          0         0          0         0         0
##  6 negative          0          1         1          0         0         0
##  7 negative          0          0         0          0         0         0
##  8 negative          1          0         1          0         0         0
##  9 negative          0          0         0          0         0         0
## 10 negative          0          0         0          0         0         0
## # … with 19,990 more rows, and 994 more variables: tf_text_5 <dbl>,
## #   tf_text_7 <dbl>, tf_text_8 <dbl>, tf_text_80 <dbl>, tf_text_9 <dbl>,
## #   tf_text_a <dbl>, tf_text_able <dbl>, tf_text_about <dbl>,
## #   tf_text_above <dbl>, tf_text_absolutely <dbl>, tf_text_across <dbl>,
## #   tf_text_act <dbl>, tf_text_acted <dbl>, tf_text_acting <dbl>,
## #   tf_text_action <dbl>, tf_text_actor <dbl>, tf_text_actors <dbl>,
## #   tf_text_actress <dbl>, tf_text_actual <dbl>, tf_text_actually <dbl>, …
…
5.7.4 Document-topic probabilities

Another thing to assess is document-topic probabilities gamma: which document belongs to which topic. By doing so, you can choose the documents that have the highest probability of belonging to a topic and then read these specifically. This might give you a better understanding of what the different topics might imply.

sotu_lda_k16_document <- tidy(sotu_lda_k16, matrix = "gamma")

This shows you the proportion of words in the document which were drawn from the specific topics. In 1990, for instance, many words were drawn from the first topic.

sotu_lda_k16_document %>% 
  group_by(document) %>% 
  slice_max(gamma, n = 1) %>% 
  mutate(gamma = round(gamma, 3))

## # A tibble: 99 × 3
## # Groups:   document [99]
##    document topic gamma
##    <chr>    <int> <dbl>
##  1 1900        13 1    
##  2 1901         2 1    
##  3 1902         2 0.997
##  4 1903         8 0.72 
##  5 1904         8 0.727
##  6 1905         8 0.998
##  7 1906         8 0.973
##  8 1907         2 0.817
##  9 1908         8 0.613
## 10 1909        11 1    
## # … with 89 more rows
…
