Chapter 6 Supervised Classification | Text Mining for Social Scientists
…
In the initial call, the formula needs to be provided. In my example, I want to predict the sentiment (“positive” or “negative”) using the text in the review. Then, different steps for pre-processing are added. Similar to what you have learned in the prior chapters containing measures based on the bag of words assumption, the first step is usually tokenization, achieved through step_tokenize(). In the end, the features need to be quantified, either through step_tf(), for raw term frequencies, or step_tfidf(), for TF-IDF. In between, various pre-processing steps such as word normalization (i.e., stemming or lemmatization), and removal of rare or common words Hence, a recipe for a very basic model just using raw frequencies and the 1,000 most common words would look as follows:

imdb_basic_recipe <- recipe(sentiment ~ text, data = imdb_train) %>% 
  step_tokenize(text) %>% # tokenize text
  step_tokenfilter(text, max_tokens = 1000) %>% # only retain 1000 most common words
  # additional pre-processing steps can be added, see next chapter
  step_tf(text) # final step: add term frequencies

In case you want to know what the data set for the classification task looks like, you can prep() and finally bake() the recipe. Note that I need to specify the data set I want to pre-process in the recipe’s manner. In my case, I want to perform the operations on the data specified in the basic_recipe and, hence, need to specify new_data = NULL.

imdb_basic_recipe %>% 
  prep() %>% 
  bake(new_data = NULL)

## # A tibble: 20,000 × 1,001
##    sentiment tf_text_1 tf_text_10 tf_text_2 tf_text_20 tf_text_3 tf_text_30
##    <fct>         <dbl>      <dbl>     <dbl>      <dbl>     <dbl>      <dbl>
##  1 negative          0          0         0          0         0          0
##  2 negative          0          1         0          0         0          0
##  3 negative          1          0         1          0         0          0
##  4 negative          0          0         0          0         1          0
##  5 negative          0          0         0          0         0          0
##  6 negative          0          0         0          0         0          0
##  7 negative          0          1         1          0         0          0
##  8 negative          0          0         0          0         0          0
##  9 negative          1          0         1          0         0          0
## 10 negative          0          0         0          0         0          0
## # … with 19,990 more rows, and 994 more variables: tf_text_4 <dbl>,
## #   tf_text_5 <dbl>, tf_text_7 <dbl>, tf_text_8 <dbl>, tf_text_80 <dbl>,
## #   tf_text_9 <dbl>, tf_text_a <dbl>, tf_text_able <dbl>, tf_text_about <dbl>,
## #   tf_text_above <dbl>, tf_text_absolutely <dbl>, tf_text_across <dbl>,
## #   tf_text_act <dbl>, tf_text_acted <dbl>, tf_text_acting <dbl>,
## #   tf_text_action <dbl>, tf_text_actor <dbl>, tf_text_actors <dbl>,
## #   tf_text_actress <dbl>, tf_text_actual <dbl>, tf_text_actually <dbl>, …
…
