Chapter 2 Text Pre-Processing: String manipulation | Text Mining for Social Scientists
…
imdb_raw <- read_csv("data/imdb2006-2016.csv")

## Rows: 1000 Columns: 12
## ── Column specification ────────────────────────────────────────────────────────
## Delimiter: ","
## chr (5): Title, Genre, Description, Director, Actors
## dbl (7): Rank, Year, Runtime (Minutes), Rating, Votes, Revenue (Millions), M...
## 
## ℹ Use `spec()` to retrieve the full column specification for this data.
## ℹ Specify the column types or set `show_col_types = FALSE` to quiet this message.

imdb_raw %>% 
  filter(str_detect(Genre, "Action"))

## # A tibble: 303 × 12
##     Rank Title   Genre Description Director Actors  Year `Runtime (Minu…` Rating
##    <dbl> <chr>   <chr> <chr>       <chr>    <chr>  <dbl>            <dbl>  <dbl>
##  1     1 Guardi… Acti… A group of… James G… Chris…  2014              121    8.1
##  2     5 Suicid… Acti… A secret g… David A… Will …  2016              123    6.2
##  3     6 The Gr… Acti… European m… Yimou Z… Matt …  2016              103    6.1
##  4     9 The Lo… Acti… A true-lif… James G… Charl…  2016              141    7.1
##  5    13 Rogue … Acti… The Rebel … Gareth … Felic…  2016              133    7.9
##  6    15 Coloss… Acti… Gloria is … Nacho V… Anne …  2016              109    6.4
##  7    18 Jason … Acti… The CIA's … Paul Gr… Matt …  2016              123    6.7
##  8    25 Indepe… Acti… Two decade… Roland … Liam …  2016              120    5.3
##  9    27 Bahuba… Acti… In ancient… S.S. Ra… Prabh…  2015              159    8.3
## 10    30 Assass… Acti… When Callu… Justin … Micha…  2016              115    5.9
## # … with 293 more rows, and 3 more variables: Votes <dbl>,
## #   `Revenue (Millions)` <dbl>, Metascore <dbl>
…
This outputs a list containing the different singular words/special characters. This doesn’t make sense in this case. Here, however, the structure of the string is always roughly the same: “\[manufacturer\]\[ \]\[model description\]”. Moreover, the manufacturer is only one word. Hence, the task can be fixed by splitting the string after the first word, which should indicate the manufacturer. This can be accomplished using str_split_fixed(). Fixed means that the number of splits is predefined. This returns a matrix that can easily become a tibble.

str_split_fixed(manufacturer_model, "(?<=\\w)\\b", n = 2) %>% 
  as_tibble() %>% 
  rename(manufacturer = V1,
         model = V2) %>% 
  mutate(model = str_squish(model))

## Warning: The `x` argument of `as_tibble.matrix()` must have unique column names if `.name_repair` is omitted as of tibble 2.0.0.
## Using compatibility `.name_repair`.
## This warning is displayed once every 8 hours.
## Call `lifecycle::last_lifecycle_warnings()` to see where this warning was generated.

## # A tibble: 32 × 2
##    manufacturer model       
##    <chr>        <chr>       
##  1 Mazda        "RX4"       
##  2 Mazda        "RX4 Wag"   
##  3 Datsun       "710"       
##  4 Hornet       "4 Drive"   
##  5 Hornet       "Sportabout"
##  6 Valiant      ""          
##  7 Duster       "360"       
##  8 Merc         "240D"      
##  9 Merc         "230"       
## 10 Merc         "280"       
## # … with 22 more rows
…
